Модель шасси (коммерческое наименование),ISUZU ELF 7.5
Модель шасси (сертификационное наименование),ISUZU NPR75L-L
Габаритные размеры и масса,
"Длина х Ширина х Высота, мм",7355 х 2115 х 2265
"Колесная база, мм",4175
"Минимальный дорожный просвет, мм",210
"Колея передних / задних колес, мм",1680 / 1650
"Полная масса автомобиля, кг",7500
"Снаряженная масса шасси, кг",2860
"Грузоподъемность шасси, кг",4640
Кабина,"однорядная, 3-местная"
Двигатель,
Модель,ISUZU 4HK1 (4HK1E4NC)
Экологический класс,Евро-4
"Объем двигателя, см3",5193
Тип топлива,ДТ
"Мощность, кВт / л.с. при об/мин",114 / 155 при 2600
"Крутящий момент, Н*м при об/мин",419 при 1600-2600
Шасси,
Трансмиссия,"ISUZU MYY6S, 
6-ступенчатая механическая коробка передач"
Тормоза,"Гидравлические с ABS, ASR и EBD. Все барабанные"
Подвеска передняя / задняя,Рессорная / рессорная
"Допустимая нагрузка на переднюю ось, кг",3100
"Допустимая нагрузка на задний мост, кг",6000
"Расстояние между лонжеронами рамы, мм",850
"Размеры швеллера рамы, мм",216 х 70 (толщина 6 мм)
Шины,215/75R17.5
"Емкость топливного бака, л",100 / 140
"Напряжение бортовой сети, В",24
Стартер,"24В-4,5кВт"
Генератор,24В-80А
Возможность установки КОМ,Да
Базовые опции,
Подогрев зеркал заднего вида,Да
Солнцезащитный козырек для водителя и пассажира,Да
Фильтр предварительной очистки топлива,Да
Основной топливный фильтр увеличенного размера с подогреваемым влагоотделителем,Да
Рулевая колонка с регулировкой наклона и вылета,Да
Аудиоподготовка (без динамиков) + Антенна,Да
Зуммер заднего хода,Да
Противотуманные фары,Да
Стеклоочистители с реулируемой частотой работы,Да
Полки в кабине над головами водителя и крайнего пассажира,Да
Пепельница в боковой двери со стороны водителя,Да
Тканевая обивка сидений,Да
Подножки кабины пластиковые,Да
Окрашенный в цвет кабины передний бампер,Да
Угол открывания дверей кабины 90 град,Да
Передний стабилизатор поперечной устойчивости передней оси,Да