Модель шасси (коммерческое наименование),ISUZU FORWARD 18.0
Модель шасси (сертификационное наименование),ISUZU FVR34UL-QDUS
Габаритные размеры и масса,
"Колесная база, мм",5 550
"Длина х Ширина х Высота шасси, мм",9 255 х 2 475 х 2 870
"Полная масса автомобиля, кг",18 000
"Снаряженная масса шасси, кг",5 635
"Грузоподъемность шасси, кг",12 365
Двигатель и трансмиссия,
"Модель, тип","ISUZU 6HK1-TCS, Четырехтактный, жидкостного охлаждения, OHC, 
дизельный (Common Rail) с турбонаддувом с изменяемой геометрией (VGS) и ОНВ,
 с системой EGR, Евро-4
"
"Количество цилиндров, расположение","6, в ряд"
"Объем двигателя, см3",7 790
"Максимальная мощность, кВт (л.с.) при об/мин",206 (280) при 2 400
"Максимальный крутящий момент, Н*м при об/мин",882 при 1 450
"Колесная формула, привод","4х2, задний"
"Коробка передач: тип, количество передач, модель","Механическая, 9-ступенчатая ZF 9S1110"
Ходовая часть,
Тормозная система,Пневматическая с ABS
Тормоза передние,Барабанные
Тормоза задние,Барабанные
Подвеска передняя,"Зависимая, рессорная"
Подвеска задняя,"Зависимая, рессорная"
Эксплуатационные характеристики,
Число мест в кабине,3 + 1 спальное место
Шины,"295/80 R22,5 152/148M, DUNLOP"
"Минимальный дорожный просвет, мм",224
"Объем топливного бака, л",200
Межсервисный интервал,20 000 км пробега или 1 год
,
"Колесная база, мм",5550
ЭКСТЕРЬЕР,
Габаритные огни на крыше кабины,Да
Окрашенный передний бампер,Да
Зеркала заднего вида увеличенного размера с креплением на дверях,Да
Дополнительные «бордюрные» зеркала по периметру кабины,Да
Повторители указателей поворота в дверях кабины,Да
Защитные кожухи ступичных гаек на передних колесных дисках,Да
БЕЗОПАСНОСТЬ,
ABS,Да
Откидывающаяся вверх-вперед кабина с защитой от случайного опрокидывания,Да
3-точечные ремни безопасности для водителя и правого пассажира с преднатяжителями,Да
2-точечный ремень безопасности для центрального пассажира,Да
Противотуманные фары в переднем бампере,Да
Задний противотуманный фонарь,Да
Стеклоочистители с прерывистым режимом работы,Да
Стабилизатор поперечной устойчивости передней оси,Да
Зуммер заднего хода,Да
КОМФОРТ,
Отопитель салона (печка),Да
Кондиционер,Да
Свечи накаливания,Да
Зеркала заднего вида с обогревом и электрорегулировками,Да
Основной топливный фильтр увеличенного размера с подогреваемыми влагоотделителем,Да
Сидение водителя на пневмоподвеске,Да
Гидроусилитель руля,Да
Усилители тормозов и сцепления,Да
Регулируемая по вылету и наклону рулевая колонка,Да
Регулировка уровня света фар,Да
Аудиоподготовка (2 динамика в дверях) + антенна,Да
Электростеклоподъемники обеих дверей,Да
Центральный замок,Да
Тканевая обшивка сидений,Да
Пластиковая обшивка интерьера кабины,Да
1 спальное место (ширина 650 мм),Да
Полки для бумаг над головами водителя и крайнего пассажира,Да
Горный тормоз,Да
Тахометр,Да
Антикоррозийная обработка кабины и рамы,Да
Подстаканник,Да
Солнцезащитный козырек для водителя и крайнего пассажира,Да